build/top.vcd
$date
	Thu Apr 17 11:43:09 2025
$end
$version
	Icarus Verilog
$end
$timescale
	10ps
$end
$scope module top_tb $end
$var wire 1 ! RGB_R $end
$var wire 1 " RGB_G $end
$var wire 1 # RGB_B $end
$var wire 1 $ LED $end
$var reg 1 % SW $end
$var reg 1 & clk $end
$scope module u0 $end
$var wire 1 $ LED $end
$var wire 1 # RGB_B $end
$var wire 1 " RGB_G $end
$var wire 1 ! RGB_R $end
$var wire 1 % SW $end
$var wire 1 & clk $end
$var wire 32 ' rs2v [31:0] $end
$var wire 32 ( rs1v [31:0] $end
$var wire 2 ) result_sel [1:0] $end
$var wire 32 * result [31:0] $end
$var wire 1 + reg_wren $end
$var wire 1 , red $end
$var wire 32 - pc_old [31:0] $end
$var wire 1 . pc_en $end
$var wire 32 / pc [31:0] $end
$var wire 1 0 mem_wren $end
$var wire 32 1 mem_rd_clocked [31:0] $end
$var wire 32 2 mem_rd [31:0] $end
$var wire 1 3 mem_funct3_sel $end
$var wire 1 4 mem_addr_sel $end
$var wire 1 5 led $end
$var wire 1 6 inst_en $end
$var wire 32 7 inst [31:0] $end
$var wire 32 8 imm_ext [31:0] $end
$var wire 3 9 imm_ctrl [2:0] $end
$var wire 1 : green $end
$var wire 1 ; blue $end
$var wire 1 < alu_zero $end
$var wire 2 = alu_src2_sel [1:0] $end
$var wire 2 > alu_src1_sel [1:0] $end
$var wire 32 ? alu_result [31:0] $end
$var wire 4 @ alu_ctrl [3:0] $end
$var reg 32 A mem_addr [31:0] $end
$var reg 3 B mem_funct3 [2:0] $end
$scope module alu0 $end
$var wire 32 C rs2v [31:0] $end
$var wire 32 D rs1v [31:0] $end
$var wire 32 E imm_ext [31:0] $end
$var wire 32 F PC_old [31:0] $end
$var wire 32 G PC [31:0] $end
$var wire 2 H ALU_src2_sel [1:0] $end
$var wire 2 I ALU_src1_sel [1:0] $end
$var wire 4 J ALU_ctrl [3:0] $end
$var parameter 32 K INCREMENT $end
$var reg 32 L ALU_result [31:0] $end
$var reg 5 M shift_value [4:0] $end
$var reg 32 N src1_result [31:0] $end
$var reg 32 O src2_result [31:0] $end
$var reg 1 < zero $end
$upscope $end
$scope module c0 $end
$var wire 1 P alu_zero $end
$var wire 1 & clk $end
$var wire 1 . pc_en $end
$var wire 1 % reset $end
$var wire 2 Q result_sel [1:0] $end
$var wire 1 + reg_wren $end
$var wire 1 R pc_update $end
$var wire 1 0 mem_wren $end
$var wire 1 3 mem_funct3_sel $end
$var wire 1 4 mem_addr_sel $end
$var wire 1 6 inst_en $end
$var wire 32 S inst [31:0] $end
$var wire 3 T imm_ctrl [2:0] $end
$var wire 1 U branch $end
$var wire 2 V alu_src2_sel [1:0] $end
$var wire 2 W alu_src1_sel [1:0] $end
$var wire 2 X alu_op [1:0] $end
$var wire 4 Y alu_ctrl [3:0] $end
$scope module ad0 $end
$var wire 3 Z funct3 [2:0] $end
$var wire 1 [ funct7_5 $end
$var wire 1 \ op_5 $end
$var wire 2 ] alu_op [1:0] $end
$var reg 4 ^ alu_ctrl [3:0] $end
$upscope $end
$scope module f0 $end
$var wire 1 & clk $end
$var wire 7 _ opcode [6:0] $end
$var wire 1 % reset $end
$var reg 1 U branch $end
$var reg 1 ` branch_n $end
$var reg 1 6 inst_en $end
$var reg 1 a inst_en_n $end
$var reg 1 0 mem_wren $end
$var reg 1 b mem_wren_n $end
$var reg 1 R pc_update $end
$var reg 1 c pc_update_n $end
$var reg 1 + reg_wren $end
$var reg 1 d reg_wren_n $end
$var reg 2 e alu_op [1:0] $end
$var reg 2 f alu_op_n [1:0] $end
$var reg 2 g alu_src1_sel [1:0] $end
$var reg 2 h alu_src1_sel_n [1:0] $end
$var reg 2 i alu_src2_sel [1:0] $end
$var reg 2 j alu_src2_sel_n [1:0] $end
$var reg 1 4 mem_addr_sel $end
$var reg 1 k mem_addr_sel_n $end
$var reg 1 3 mem_funct3_sel $end
$var reg 1 l mem_funct3_sel_n $end
$var integer 32 m next_state [31:0] $end
$var reg 2 n result_sel [1:0] $end
$var reg 2 o result_sel_n [1:0] $end
$var integer 32 p state [31:0] $end
$upscope $end
$scope module id0 $end
$var wire 7 q opcode [6:0] $end
$var reg 3 r imm_ctrl [2:0] $end
$upscope $end
$upscope $end
$scope module i0 $end
$var wire 1 6 inst_en $end
$var wire 32 s pc [31:0] $end
$var wire 32 t mem_rd [31:0] $end
$var reg 32 u inst [31:0] $end
$var reg 32 v pc_old [31:0] $end
$upscope $end
$scope module imm0 $end
$var wire 3 w imm_ctrl [2:0] $end
$var wire 25 x immed [24:0] $end
$var reg 32 y imm_ext [31:0] $end
$upscope $end
$scope module mem0 $end
$var wire 1 & clk $end
$var wire 3 z funct3 [2:0] $end
$var wire 1 { mem_write_enable $end
$var wire 32 | read_address [31:0] $end
$var wire 32 } write_address [31:0] $end
$var wire 1 0 write_mem $end
$var wire 1 ~ write_word $end
$var wire 1 !" write_half $end
$var wire 8 "" write_data3 [7:0] $end
$var wire 8 #" write_data2 [7:0] $end
$var wire 8 $" write_data1 [7:0] $end
$var wire 8 %" write_data0 [7:0] $end
$var wire 32 &" write_data [31:0] $end
$var wire 1 '" write_address1 $end
$var wire 1 (" write_address0 $end
$var wire 1 )" sign_bit3 $end
$var wire 1 *" sign_bit2 $end
$var wire 1 +" sign_bit1 $end
$var wire 1 ," sign_bit0 $end
$var wire 1 , red $end
$var wire 16 -" read_value32 [15:0] $end
$var wire 8 ." read_value3 [7:0] $end
$var wire 8 /" read_value2 [7:0] $end
$var wire 16 0" read_value10 [15:0] $end
$var wire 8 1" read_value1 [7:0] $end
$var wire 8 2" read_value0 [7:0] $end
$var wire 32 3" read_val [31:0] $end
$var wire 1 4" mem_read_enable $end
$var wire 8 5" mem_read_data3 [7:0] $end
$var wire 8 6" mem_read_data2 [7:0] $end
$var wire 8 7" mem_read_data1 [7:0] $end
$var wire 8 8" mem_read_data0 [7:0] $end
$var wire 1 5 led $end
$var wire 1 : green $end
$var wire 1 ; blue $end
$var parameter 152 9" INIT_FILE $end
$var reg 32 :" leds [31:0] $end
$var reg 8 ;" mem_write_data0 [7:0] $end
$var reg 8 <" mem_write_data1 [7:0] $end
$var reg 8 =" mem_write_data2 [7:0] $end
$var reg 8 >" mem_write_data3 [7:0] $end
$var reg 1 ?" mem_write_enable0 $end
$var reg 1 @" mem_write_enable1 $end
$var reg 1 A" mem_write_enable2 $end
$var reg 1 B" mem_write_enable3 $end
$var reg 32 C" micros [31:0] $end
$var reg 4 D" micros_counter [3:0] $end
$var reg 32 E" millis [31:0] $end
$var reg 14 F" millis_counter [13:0] $end
$var reg 8 G" pwm_counter [7:0] $end
$var reg 1 H" read_address0 $end
$var reg 1 I" read_address1 $end
$var reg 32 J" read_data [31:0] $end
$var reg 32 K" read_data_clocked [31:0] $end
$var reg 1 L" read_half $end
$var reg 1 M" read_unsigned $end
$var reg 32 N" read_value [31:0] $end
$var reg 1 O" read_word $end
$scope module mem0 $end
$var wire 1 & clk $end
$var wire 11 P" read_address [10:0] $end
$var wire 1 4" read_enable $end
$var wire 11 Q" write_address [10:0] $end
$var wire 8 R" write_data [7:0] $end
$var wire 1 ?" write_enable $end
$var parameter 192 S" INIT_FILE $end
$var reg 8 T" read_data [7:0] $end
$upscope $end
$scope module mem1 $end
$var wire 1 & clk $end
$var wire 11 U" read_address [10:0] $end
$var wire 1 4" read_enable $end
$var wire 11 V" write_address [10:0] $end
$var wire 8 W" write_data [7:0] $end
$var wire 1 @" write_enable $end
$var parameter 192 X" INIT_FILE $end
$var reg 8 Y" read_data [7:0] $end
$upscope $end
$scope module mem2 $end
$var wire 1 & clk $end
$var wire 11 Z" read_address [10:0] $end
$var wire 1 4" read_enable $end
$var wire 11 [" write_address [10:0] $end
$var wire 8 \" write_data [7:0] $end
$var wire 1 A" write_enable $end
$var parameter 192 ]" INIT_FILE $end
$var reg 8 ^" read_data [7:0] $end
$upscope $end
$scope module mem3 $end
$var wire 1 & clk $end
$var wire 11 _" read_address [10:0] $end
$var wire 1 4" read_enable $end
$var wire 11 `" write_address [10:0] $end
$var wire 8 a" write_data [7:0] $end
$var wire 1 B" write_enable $end
$var parameter 192 b" INIT_FILE $end
$var reg 8 c" read_data [7:0] $end
$upscope $end
$upscope $end
$scope module p0 $end
$var wire 1 & clk $end
$var wire 1 . pc_en $end
$var wire 1 % reset $end
$var wire 32 d" pc_next [31:0] $end
$var parameter 32 e" PROGRAM_START $end
$var reg 32 f" pc [31:0] $end
$upscope $end
$scope module r0 $end
$var wire 32 g" ALU_result [31:0] $end
$var wire 1 & clk $end
$var wire 32 h" data [31:0] $end
$var wire 2 i" result_sel [1:0] $end
$var reg 32 j" ALU_out [31:0] $end
$var reg 32 k" result [31:0] $end
$upscope $end
$scope module reg0 $end
$var wire 1 & clk $end
$var wire 5 l" rs1 [4:0] $end
$var wire 5 m" rs2 [4:0] $end
$var wire 5 n" wd_reg [4:0] $end
$var wire 32 o" wdv [31:0] $end
$var wire 1 p" wren $end
$var reg 32 q" rs1v [31:0] $end
$var reg 32 r" rs1v_imm [31:0] $end
$var reg 32 s" rs2v [31:0] $end
$var reg 32 t" rs2v_imm [31:0] $end
$scope begin $ivl_foreach0 $end
$var integer 32 u" i [31:0] $end
$upscope $end
$upscope $end
$upscope $end
$upscope $end
$enddefinitions $end
$comment Show the parameter values. $end
$dumpall
b0 e"
b11100000111001001101111011001110111001001100001011011010111001100101111011100100111011000110011001100100110100101011111011101000110010101110011011101000011001100101110011101000111100001110100 b"
b11100000111001001101111011001110111001001100001011011010111001100101111011100100111011000110011001100100110100101011111011101000110010101110011011101000011001000101110011101000111100001110100 ]"
b11100000111001001101111011001110111001001100001011011010111001100101111011100100111011000110011001100100110100101011111011101000110010101110011011101000011000100101110011101000111100001110100 X"
b11100000111001001101111011001110111001001100001011011010111001100101111011100100111011000110011001100100110100101011111011101000110010101110011011101000011000000101110011101000111100001110100 S"
b1110000011100100110111101100111011100100110000101101101011100110010111101110010011101100011001100110010011010010101111101110100011001010111001101110100 9"
b100 K
$end
#0
$dumpvars
b100000 u"
bx t"
bx s"
bx r"
bx q"
zp"
b0 o"
b0 n"
b0 m"
b0 l"
b0 k"
bx j"
b11 i"
bx h"
bx g"
b0 f"
b0 d"
bx c"
bx a"
b0 `"
b0 _"
bx ^"
bx \"
b0 ["
b0 Z"
bx Y"
bx W"
b0 V"
b0 U"
bx T"
bx R"
b0 Q"
b0 P"
xO"
b0 N"
xM"
xL"
bx K"
bx J"
xI"
xH"
b0 G"
b0 F"
b0 E"
b0 D"
b0 C"
0B"
0A"
0@"
0?"
bx >"
bx ="
bx <"
bx ;"
b0 :"
bx 8"
bx 7"
bx 6"
bx 5"
14"
bx 3"
bx 2"
bx 1"
bx 0"
bx /"
bx ."
bx -"
x,"
x+"
x*"
x)"
0("
0'"
bx &"
bx %"
bx $"
bx #"
bx ""
0!"
1~
b0 }
b0 |
0{
b10 z
b0 y
b0 x
b0 w
b0 v
b0 u
bx t
b0 s
b0 r
b0 q
b1001 p
b10 o
b11 n
b0 m
0l
0k
b10 j
b0 i
b0 h
b10 g
b0 f
b0 e
0d
1c
0b
1a
0`
b0 _
b0 ^
b0 ]
0\
0[
b0 Z
b0 Y
b0 X
b10 W
b0 V
0U
b0 T
b0 S
0R
b11 Q
zP
bx O
bx N
bx M
bx L
b0 J
b10 I
b0 H
b0 G
b0 F
b0 E
bx D
bx C
b10 B
b0 A
b0 @
bx ?
b10 >
b0 =
x<
0;
0:
b0 9
b0 8
b0 7
06
05
04
03
bx 2
bx 1
00
b0 /
0.
b0 -
0,
0+
b0 *
b11 )
bx (
bx '
0&
0%
1$
1#
1"
1!
$end
#4000
b1100000010110111 0"
b1111111011011100 -"
b10110111 2"
b11000000 1"
b11011100 /"
b11111110 ."
1,"
1+"
1*"
1)"
b11111110110111001100000010110111 2
b11111110110111001100000010110111 t
b11111110110111001100000010110111 J"
b11111110110111001100000010110111 3"
b0 t"
b0 r"
b10110111 8"
b10110111 T"
b11000000 7"
b11000000 Y"
b11011100 6"
b11011100 ^"
b11111110 5"
b11111110 c"
0M"
0L"
1O"
0H"
0I"
b1 G"
b1 F"
b1 D"
1&
#8000
0&
1%
#12000
b11 9
b11 T
b11 r
b11 w
b11111111111111111110110111001100 8
b11111111111111111110110111001100 E
b11111111111111111110110111001100 y
b110111 _
b110111 q
1\
1[
b100 Z
b1111111011011100110000001 x
b1 n"
b1101 m"
b11001 l"
b11111110110111001100000010110111 7
b11111110110111001100000010110111 S
b11111110110111001100000010110111 u
b11 o
b1 j
b1 h
1l
0a
0c
b0 >"
b0 a"
b0 ="
b0 \"
b0 <"
b0 W"
b0 ;"
b0 R"
b100 ?
b100 L
b100 g"
b1 m
1.
b100 *
b100 d"
b100 k"
b100 o"
b0 ""
b0 #"
b0 $"
b0 %"
b100 O
b0 N
b0 p
b10 )
b10 Q
b10 n
b10 i"
b10 =
b10 H
b10 V
b10 i
b0 >
b0 I
b0 W
b0 g
16
1R
b11111110110111001100000010110111 1
b11111110110111001100000010110111 K"
b11111110110111001100000010110111 h"
b10 D"
b10 F"
b10 G"
b0 '
b0 C
b0 &"
b0 s"
b0 (
b0 D
b0 q"
1&
#16000
0&
#20000
b1 Q"
b1 P"
b1 V"
b1 U"
b1 ["
b1 Z"
b1 `"
b1 _"
b11111111111111111110110111001100 ?
b11111111111111111110110111001100 L
b11111111111111111110110111001100 g"
0~
b10 f
b1 j
b10 h
b100 A
b100 |
b100 }
b11111111111111111110110111001100 O
b100 B
b100 z
0.
b100 m
b0 *
b0 d"
b0 k"
b0 o"
b100 /
b100 G
b100 s
b100 f"
b11 )
b11 Q
b11 n
b11 i"
b1 =
b1 H
b1 V
b1 i
b1 >
b1 I
b1 W
b1 g
13
06
0R
b1 p
b100 j"
b11 G"
b11 F"
b11 D"
1&
#24000
0&
#28000
b1000000010010011 0"
b1010100110000000 -"
b10010011 2"
b10000000 1"
b10000000 /"
b10101001 ."
1d
b0 o
b0 f
b0 j
b1 ?
b1 L
b1 g"
b10101001100000001000000010010011 3"
b1000 m
b100 @
b100 J
b100 Y
b100 ^
b10010011 2
b10010011 t
b10010011 J"
b100 p
b10 X
b10 ]
b10 e
b10 >
b10 I
b10 W
b10 g
b100 D"
b100 F"
b100 G"
1M"
0O"
b10101001 5"
b10101001 c"
b10000000 6"
b10000000 ^"
b10000000 7"
b10000000 Y"
b10010011 8"
b10010011 T"
b11111111111111111110110111001100 j"
1&
#32000
0&
#36000
b0 ?
b0 L
b0 g"
1c
b10 j
b0 h
1a
0l
b10 o
0d
b0 @
b0 J
b0 Y
b0 ^
b0 O
b0 m
b1 *
b1 d"
b1 k"
b1 o"
b0 X
b0 ]
b0 e
b0 )
b0 Q
b0 n
b0 i"
b0 =
b0 H
b0 V
b0 i
1+
b1000 p
b1 j"
b101 G"
b101 F"
b101 D"
b10010011 1
b10010011 K"
b10010011 h"
1&
#40000
0&
#44000
b0 9
b0 T
b0 r
b0 w
b0 8
b0 E
b0 y
b10011 _
b10011 q
0\
0[
b0 Z
b1 x
b0 m"
b0 l"
b100 -
b100 F
b100 v
b10010011 7
b10010011 S
b10010011 u
b11 o
b1 j
b1 h
1l
0a
0c
b1000 ?
b1000 L
b1000 g"
1~
b1 m
b100 O
b100 N
b10 B
b10 z
1.
b1000 *
b1000 d"
b1000 k"
b1000 o"
b0 p
b10 )
b10 Q
b10 n
b10 i"
b10 =
b10 H
b10 V
b10 i
b0 >
b0 I
b0 W
b0 g
03
0+
16
1R
b110 D"
b110 F"
b110 G"
b0 j"
1&
#48000
0&
#52000
b10 Q"
b10 P"
b10 V"
b10 U"
b10 ["
b10 Z"
b10 `"
b10 _"
b100 ?
b100 L
b100 g"
0~
b10 f
b1 j
b10 h
b1000 A
b1000 |
b1000 }
b0 O
b0 B
b0 z
0.
b100 m
b0 *
b0 d"
b0 k"
b0 o"
b10101001100000001000000010010011 2
b10101001100000001000000010010011 t
b10101001100000001000000010010011 J"
b1000 /
b1000 G
b1000 s
b1000 f"
b11 )
b11 Q
b11 n
b11 i"
b1 =
b1 H
b1 V
b1 i
b1 >
b1 I
b1 W
b1 g
13
06
0R
b1 p
b1000 j"
0M"
1O"
b111 G"
b111 F"
b111 D"
1&
#56000
0&
#60000
b1101000100010011 0"
b1000000 -"
b10011 2"
b11010001 1"
b1000000 /"
b0 ."
0,"
0*"
0)"
1d
b0 o
b0 f
b0 j
b0 ?
b0 L
b0 g"
b10000001101000100010011 3"
b1000 m
b0 N
b10011 2
b10011 t
b10011 J"
b100 p
b10 X
b10 ]
b10 e
b10 >
b10 I
b10 W
b10 g
b10101001100000001000000010010011 1
b10101001100000001000000010010011 K"
b10101001100000001000000010010011 h"
b1000 D"
b1000 F"
b1000 G"
0O"
b0 5"
b0 c"
b1000000 6"
b1000000 ^"
b11010001 7"
b11010001 Y"
b10011 8"
b10011 T"
b100 j"
1&
#64000
0&
#68000
1c
b10 j
b0 h
1a
0l
b10 o
0d
b0 m
b0 X
b0 ]
b0 e
b0 )
b0 Q
b0 n
b0 i"
b0 =
b0 H
b0 V
b0 i
1+
b1000 p
b0 j"
b1001 G"
b1001 F"
b1001 D"
b10011 1
b10011 K"
b10011 h"
1&
#72000
0&
#76000
b0 x
b0 n"
b1000 -
b1000 F
b1000 v
b10011 7
b10011 S
b10011 u
b1100 *
b1100 d"
b1100 k"
b1100 o"
b11 o
b1 j
b1 h
1l
0a
0c
b1100 ?
b1100 L
b1100 g"
1~
b1 m
b100 O
b1000 N
b10 B
b10 z
1.
b0 p
b10 )
b10 Q
b10 n
b10 i"
b10 =
b10 H
b10 V
b10 i
b0 >
b0 I
b0 W
b0 g
03
0+
16
1R
b1010 D"
b1010 F"
b1010 G"
1&
#80000
0&
#84000
b11 Q"
b11 P"
b11 V"
b11 U"
b11 ["
b11 Z"
b11 `"
b11 _"
b1000 ?
b1000 L
b1000 g"
0~
b10 f
b1 j
b10 h
b1100 A
b1100 |
b1100 }
b0 O
b0 B
b0 z
0.
b100 m
b0 *
b0 d"
b0 k"
b0 o"
b10000001101000100010011 2
b10000001101000100010011 t
b10000001101000100010011 J"
b1100 /
b1100 G
b1100 s
b1100 f"
b11 )
b11 Q
b11 n
b11 i"
b1 =
b1 H
b1 V
b1 i
b1 >
b1 I
b1 W
b1 g
13
06
0R
b1 p
b1100 j"
1O"
b1011 G"
b1011 F"
b1011 D"
1&
#88000
0&
#92000
b1101000110010011 0"
b100000001000000 -"
b10010011 2"
b1000000 ."
1,"
1d
b0 o
b0 f
b0 j
b0 ?
b0 L
b0 g"
b1000000010000001101000110010011 3"
b1000 m
b0 N
b11111111111111111111111110010011 2
b11111111111111111111111110010011 t
b11111111111111111111111110010011 J"
b100 p
b10 X
b10 ]
b10 e
b10 >
b10 I
b10 W
b10 g
b10000001101000100010011 1
b10000001101000100010011 K"
b10000001101000100010011 h"
b1 C"
b0 D"
b1100 F"
b1100 G"
0O"
b1000000 5"
b1000000 c"
b10010011 8"
b10010011 T"
b1000 j"
1&
#96000
0&
#100000
1c
b10 j
b0 h
1a
0l
b10 o
0d
b0 m
b0 X
b0 ]
b0 e
b0 )
b0 Q
b0 n
b0 i"
b0 =
b0 H
b0 V
b0 i
1+
b1000 p
b0 j"
b1101 G"
b1101 F"
b1 D"
b11111111111111111111111110010011 1
b11111111111111111111111110010011 K"
b11111111111111111111111110010011 h"
1&
#104000
0&
#108000
b11111111111111111111111111111111 8
b11111111111111111111111111111111 E
b11111111111111111111111111111111 y
1[
b111 Z
b1111111111111111111111111 x
b11111 n"
b11111 m"
b11111 l"
b1100 -
b1100 F
b1100 v
b11111111111111111111111110010011 7
b11111111111111111111111110010011 S
b11111111111111111111111110010011 u
b10000 *
b10000 d"
b10000 k"
b10000 o"
b11 o
b1 j
b1 h
1l
0a
0c
b10000 ?
b10000 L
b10000 g"
1~
b1 m
b100 O
b1100 N
b10 B
b10 z
1.
b0 p
b10 )
b10 Q
b10 n
b10 i"
b10 =
b10 H
b10 V
b10 i
b0 >
b0 I
b0 W
b0 g
03
0+
16
1R
b10 D"
b1110 F"
b1110 G"
1&
#112000
0&
#116000
b100 Q"
b100 P"
b100 V"
b100 U"
b100 ["
b100 Z"
b100 `"
b100 _"
b1011 ?
b1011 L
b1011 g"
1!"
b10 f
b1 j
b10 h
b10000 A
b10000 |
b10000 }
b11111111111111111111111111111111 O
b111 B
b111 z
0.
b100 m
b0 *
b0 d"
b0 k"
b0 o"
b1000000010000001101000110010011 2
b1000000010000001101000110010011 t
b1000000010000001101000110010011 J"
b10000 /
b10000 G
b10000 s
b10000 f"
b11 )
b11 Q
b11 n
b11 i"
b1 =
b1 H
b1 V
b1 i
b1 >
b1 I
b1 W
b1 g
13
06
0R
b1 p
b10000 j"
1O"
b1111 G"
b1111 F"
b11 D"
1&
#120000
0&
#124000
b1100001000010011 0"
b1111111111110001 -"
b10011 2"
b11000010 1"
b11110001 /"
b11111111 ."
0,"
1*"
1)"
b11111111111100011100001000010011 2
b11111111111100011100001000010011 t
b11111111111100011100001000010011 J"
1d
b0 o
b0 f
b0 j
b0 ?
b0 L
b0 g"
b11111111111100011100001000010011 3"
b1000 m
b10 @
b10 J
b10 Y
b10 ^
b0 N
b100 p
b10 X
b10 ]
b10 e
b10 >
b10 I
b10 W
b10 g
b1000000010000001101000110010011 1
b1000000010000001101000110010011 K"
b1000000010000001101000110010011 h"
b100 D"
b10000 F"
b10000 G"
1M"
1L"
b11111111 5"
b11111111 c"
b11110001 6"
b11110001 ^"
b11000010 7"
b11000010 Y"
b10011 8"
b10011 T"
b1011 j"
1&
#128000
0&
#132000
1c
b10 j
b0 h
1a
0l
b10 o
0d
b0 @
b0 J
b0 Y
b0 ^
b0 O
b0 m
b0 X
b0 ]
b0 e
b0 )
b0 Q
b0 n
b0 i"
b0 =
b0 H
b0 V
b0 i
1+
b1000 p
b0 j"
b10001 G"
b10001 F"
b101 D"
b11111111111100011100001000010011 1
b11111111111100011100001000010011 K"
b11111111111100011100001000010011 h"
1&
#136000
0&
#140000
b100 Z
b1111111111110001110000100 x
b100 n"
b11 l"
b10000 -
b10000 F
b10000 v
b11111111111100011100001000010011 7
b11111111111100011100001000010011 S
b11111111111100011100001000010011 u
b10100 *
b10100 d"
b10100 k"
b10100 o"
b11 o
b1 j
b1 h
1l
0a
0c
b10100 ?
b10100 L
b10100 g"
0!"
b1 m
b100 O
b10000 N
b10 B
b10 z
1.
b0 p
b10 )
b10 Q
b10 n
b10 i"
b10 =
b10 H
b10 V
b10 i
b0 >
b0 I
b0 W
b0 g
03
0+
16
1R
b110 D"
b10010 F"
b10010 G"
1&
#144000
0&
#148000
b101 Q"
b101 P"
b101 V"
b101 U"
b101 ["
b101 Z"
b101 `"
b101 _"
b1111 ?
b1111 L
b1111 g"
0~
b10 f
b1 j
b10 h
b10100 A
b10100 |
b10100 }
b11111111111111111111111111111111 O
b100 B
b100 z
0.
b100 m
b0 *
b0 d"
b0 k"
b0 o"
b10100 /
b10100 G
b10100 s
b10100 f"
b11 )
b11 Q
b11 n
b11 i"
b1 =
b1 H
b1 V
b1 i
b1 >
b1 I
b1 W
b1 g
13
06
0R
b1 p
b10100 j"
0M"
0L"
b10011 G"
b10011 F"
b111 D"
1&
#152000
0&
#156000
b1010010011 0"
b100000 -"
b10010011 2"
b10 1"
b100000 /"
b0 ."
1,"
0+"
0*"
0)"
1d
b0 o
b0 f
b0 j
b1 ?
b1 L
b1 g"
b1000000000001010010011 3"
b1000 m
b100 @
b100 J
b100 Y
b100 ^
b0 N
b10010011 2
b10010011 t
b10010011 J"
b100 p
b10 X
b10 ]
b10 e
b10 >
b10 I
b10 W
b10 g
b1000 D"
b10100 F"
b10100 G"
1M"
0O"
b0 5"
b0 c"
b100000 6"
b100000 ^"
b10 7"
b10 Y"
b10010011 8"
b10010011 T"
b1111 j"
1&
#160000
0&
#164000
b0 ?
b0 L
b0 g"
1c
b10 j
b0 h
1a
0l
b10 o
0d
b0 @
b0 J
b0 Y
b0 ^
b0 O
b0 m
b1 *
b1 d"
b1 k"
b1 o"
b0 X
b0 ]
b0 e
b0 )
b0 Q
b0 n
b0 i"
b0 =
b0 H
b0 V
b0 i
1+
b1000 p
b1 j"
b10101 G"
b10101 F"
b1001 D"
b10010011 1
b10010011 K"
b10010011 h"
1&
#168000
0&
#172000
b0 8
b0 E
b0 y
0[
b0 Z
b1 x
b1 n"
b0 m"
b0 l"
b10100 -
b10100 F
b10100 v
b10010011 7
b10010011 S
b10010011 u
b11 o
b1 j
b1 h
1l
0a
0c
b11000 ?
b11000 L
b11000 g"
1~
b1 m
b100 O
b10100 N
b10 B
b10 z
1.
b11000 *
b11000 d"
b11000 k"
b11000 o"
b0 p
b10 )
b10 Q
b10 n
b10 i"
b10 =
b10 H
b10 V
b10 i
b0 >
b0 I
b0 W
b0 g
03
0+
16
1R
b1010 D"
b10110 F"
b10110 G"
b0 j"
1&
#176000
0&
#180000
b110 Q"
b110 P"
b110 V"
b110 U"
b110 ["
b110 Z"
b110 `"
b110 _"
b10100 ?
b10100 L
b10100 g"
0~
b10 f
b1 j
b10 h
b11000 A
b11000 |
b11000 }
b0 O
b0 B
b0 z
0.
b100 m
b0 *
b0 d"
b0 k"
b0 o"
b1000000000001010010011 2
b1000000000001010010011 t
b1000000000001010010011 J"
b11000 /
b11000 G
b11000 s
b11000 f"
b11 )
b11 Q
b11 n
b11 i"
b1 =
b1 H
b1 V
b1 i
b1 >
b1 I
b1 W
b1 g
13
06
0R
b1 p
b11000 j"
0M"
1O"
b10111 G"
b10111 F"
b1011 D"
1&
#184000
0&
#188000
b1000001100110011 0"
b1000010 -"
b110011 2"
b10000011 1"
b1000010 /"
0,"
1+"
1d
b0 o
b0 f
b0 j
b0 ?
b0 L
b0 g"
b10000101000001100110011 3"
b1000 m
b0 N
b110011 2
b110011 t
b110011 J"
b100 p
b10 X
b10 ]
b10 e
b10 >
b10 I
b10 W
b10 g
b1000000000001010010011 1
b1000000000001010010011 K"
b1000000000001010010011 h"
b10 C"
b0 D"
b11000 F"
b11000 G"
0O"
b1000010 6"
b1000010 ^"
b10000011 7"
b10000011 Y"
b110011 8"
b110011 T"
b10100 j"
1&
#192000
0&
#196000
1c
b10 j
b0 h
1a
0l
b10 o
0d
b0 m
b0 X
b0 ]
b0 e
b0 )
b0 Q
b0 n
b0 i"
b0 =
b0 H
b0 V
b0 i
1+
b1000 p
b0 j"
b11001 G"
b11001 F"
b1 D"
b110011 1
b110011 K"
b110011 h"
1&
#200000
0&
#204000
b110011 _
b110011 q
1\
b0 x
b0 n"
b11000 -
b11000 F
b11000 v
b110011 7
b110011 S
b110011 u
b11100 *
b11100 d"
b11100 k"
b11100 o"
b11 o
b1 j
b1 h
1l
0a
0c
b11100 ?
b11100 L
b11100 g"
1~
b1 m
b100 O
b11000 N
b10 B
b10 z
1.
b0 p
b10 )
b10 Q
b10 n
b10 i"
b10 =
b10 H
b10 V
b10 i
b0 >
b0 I
b0 W
b0 g
03
0+
16
1R
b10 D"
b11010 F"
b11010 G"
1&
#208000
0&
#212000
b111 Q"
b111 P"
b111 V"
b111 U"
b111 ["
b111 Z"
b111 `"
b111 _"
b11000 ?
b11000 L
b11000 g"
0~
b10 f
b0 j
b10 h
b11100 A
b11100 |
b11100 }
b0 O
b0 B
b0 z
0.
b11 m
b0 *
b0 d"
b0 k"
b0 o"
b10000101000001100110011 2
b10000101000001100110011 t
b10000101000001100110011 J"
b11100 /
b11100 G
b11100 s
b11100 f"
b11 )
b11 Q
b11 n
b11 i"
b1 =
b1 H
b1 V
b1 i
b1 >
b1 I
b1 W
b1 g
13
06
0R
b1 p
b11100 j"
1O"
b11011 G"
b11011 F"
b11 D"
1&
#216000
0&
#220000
b1110110011 0"
b100000001000011 -"
b10110011 2"
b11 1"
b1000011 /"
b1000000 ."
1,"
0+"
1d
b0 o
b0 f
b0 ?
b0 L
b0 g"
b1000000010000110000001110110011 3"
b1000 m
b0 N
b11111111111111111111111110110011 2
b11111111111111111111111110110011 t
b11111111111111111111111110110011 J"
b11 p
b10 X
b10 ]
b10 e
b0 =
b0 H
b0 V
b0 i
b10 >
b10 I
b10 W
b10 g
b10000101000001100110011 1
b10000101000001100110011 K"
b10000101000001100110011 h"
b100 D"
b11100 F"
b11100 G"
0O"
b1000000 5"
b1000000 c"
b1000011 6"
b1000011 ^"
b11 7"
b11 Y"
b10110011 8"
b10110011 T"
b11000 j"
1&
#224000
0&
#228000
1c
b10 j
b0 h
1a
0l
b10 o
0d
b0 m
b0 X
b0 ]
b0 e
b0 )
b0 Q
b0 n
b0 i"
1+
b1000 p
b0 j"
b11101 G"
b11101 F"
b101 D"
b11111111111111111111111110110011 1
b11111111111111111111111110110011 K"
b11111111111111111111111110110011 h"
1&
#232000
0&
#236000
b11111111111111111111111111111111 8
b11111111111111111111111111111111 E
b11111111111111111111111111111111 y
1[
b111 Z
b1111111111111111111111111 x
b11111 n"
b11111 m"
b11111 l"
b11100 -
b11100 F
b11100 v
b11111111111111111111111110110011 7
b11111111111111111111111110110011 S
b11111111111111111111111110110011 u
b100000 *
b100000 d"
b100000 k"
b100000 o"
b11 o
b1 j
b1 h
1l
0a
0c
b100000 ?
b100000 L
b100000 g"
1~
b1 m
b100 O
b11100 N
b10 B
b10 z
1.
b0 p
b10 )
b10 Q
b10 n
b10 i"
b10 =
b10 H
b10 V
b10 i
b0 >
b0 I
b0 W
b0 g
03
0+
16
1R
b110 D"
b11110 F"
b11110 G"
1&
#240000
0&
